{
  "type": "service_account",
  "project_id": "odat-287603",
  "private_key_id": "209d2331d34e77563013f01f0e7e9730fde7e628",
  "private_key": "-----BEGIN PRIVATE KEY-----\nMIIEvAIBADANBgkqhkiG9w0BAQEFAASCBKYwggSiAgEAAoIBAQCgeSRIn2UtXP0d\nNNvu5p0JN+ILmzJfj+DsrJFMv8sAsIZaeHNSMUSlc0v6cLts+F4f//ZY+qXQ6TpE\nbQnuhUX6wwl5rO2w+AVddV+4Et4FqlHXQLzwjYFADEL/urqdXIlAfJEbER59wQLM\nAqWkYJZ3d7T7+D6Zljb9YX11zd1ZOZl2xMlkG1xJdIXc5l8qcnJyH0VIfpVExax7\nSQi3VKsP/L2HOEgbceWTfBy8HwUyPaBzacEVVeEbzlCb0RNl8qYBbPQu4UHbOGqx\nXD/5nXJFv3oNXVbuppJHxJKaMTeYYIecuVTawDFEnBkhpFm9RFcGmv/ZundsPdw/\n9bJNsOWzAgMBAAECggEAKOz8TfEo0prmiq5ScOkrn5A6/A7GmAyPpoyUOeioEzLx\n8NzLPGkIQtHWzLY3dqEZEDwtTaAO7eqtS4orgENJB5z6K6forrtyUtV+ZemZ6gP3\n/1epWAgesIDwDVxH/537+xBJyYdiKVwyJGmAaR2hAjLrW1+CR5VBzPkyD/tCumBI\nM0fx+dRMBDga2MCPJyauH6kqz6ZqPDOrPVqEKThLxsxOwSwHjvvSAsvS54dfJXn+\neMYkGa/4XSLB2jKc+FkrxqVQx1yR6yJ0fEbVaj8jq2jEomXy6xwF0rRiH9WMkZmb\nY2sjVAqqhRGe3y31uIhqbQZJxrwKnQtru3+wN/viUQKBgQDi02i0Egjkhe86XjPR\n1mHBrfTMRyq0ouwwff1UvjT3RmCsNo+jBZCud1+s/GKlvYOZibB9tcJCwTzhg/rs\ngbS8PV9ua+mkU1PfoyXmHKDpUoLPc6xPcuWQdVj80VK6tlQe/8rSXH/uP+fRWA/p\n2ZKVkBghz0e9x/QqSONwhdTHTwKBgQC1HPhyDNZeROmh3en3919OTnwaNtMg87uo\nBicDGit7EbAT7UX2+4t9KHVuEvYi6YNJX/Uq/fqTR0CMNeFgWCer84RrAjQoPdjY\n4f0aSH/zqsiBYZAb9e8/qKoQUDXwWhDdrThqbZ4NK2wUT80IdwGhxC+Ar7dKs/iw\nirszyVQiXQKBgEdV25D+NwO/x4vgwoVU2euyjNGN9DVZI9TgWsLDCx9VZ+PhSO0p\nO+ZSrqlVuqSLZI7uCa6PcifSZBY8jrbA2Bl3Z8Lvd0xx1Gf6BFpJWKXoiDE8HM3j\nwaTb8v+XyV/lJbGWGrBr3OQN/xcMjfyqq3oUFjLT4Kkj8Hs37yedP1zrAoGAFN4M\nph9ih6QLAzJtZbujyIL0e5S7iL1sbrSexBW80sY78l/RQt7CuJ3zwcX/hBBBpy+e\nMODogRWhk0YV/KLLl11McYPkfIp7tKl9Hw0haPLRfU6/aulQMpZ9WbnULShDbzcp\nG+IbZssM/d4f8oy7rGbNTldwl/PagITLgvD8d6UCgYBo8wUVXMtc/eHT6/Es/RT1\ncSsfhD5Xbz+Xt43H+0/Uo4BEjC8w4bBDTVTqorSLdYN3hH8IQ/99L84m6GGPh6W3\n/G17g4NAMJxrXsShQu3JFQW1tJQ1BP34JBSHPgqULOUdrp7oj6w9AyrQi+EFIxWa\nBjwHk4z4ZGrc83zo+f8Ysg==\n-----END PRIVATE KEY-----\n",
  "client_email": "odat-852@odat-287603.iam.gserviceaccount.com",
  "client_id": "100030122221295422167",
  "auth_uri": "https://accounts.google.com/o/oauth2/auth",
  "token_uri": "https://oauth2.googleapis.com/token",
  "auth_provider_x509_cert_url": "https://www.googleapis.com/oauth2/v1/certs",
  "client_x509_cert_url": "https://www.googleapis.com/robot/v1/metadata/x509/odat-852%40odat-287603.iam.gserviceaccount.com"
}